<?xml version="1.0" encoding="UTF-8"?>
<!DOCTYPE svg PUBLIC "-//W3C//DTD SVG 1.1//EN" "http://www.w3.org/Graphics/SVG/1.1/DTD/svg11.dtd">
<!-- Creator: CorelDRAW X7 -->
<svg xmlns="http://www.w3.org/2000/svg" xml:space="preserve" width="3.664in" height="1.99091in" version="1.1" style="shape-rendering:geometricPrecision; text-rendering:geometricPrecision; image-rendering:optimizeQuality; fill-rule:evenodd; clip-rule:evenodd"
viewBox="0 0 1465 796"
 xmlns:xlink="http://www.w3.org/1999/xlink">
 <defs>
  <style type="text/css">
   <![CDATA[
    .fil2 {fill:none}
    .fil4 {fill:#FEFEFE}
    .fil0 {fill:#373435}
    .fil3 {fill:#373435}
    .fil1 {fill:#F89C32}
   ]]>
  </style>
    <clipPath id="id0">
     <path d="M87 224l-66 0 -21 -78 232 0 20 78 -81 0 0 265 -84 0 0 -265zm892 78c12,0 21,5 25,16 -5,15 -8,30 -8,46 0,25 7,47 20,68 13,20 30,36 52,47 22,12 45,18 70,18 18,0 36,-4 53,-10 17,-7 32,-16 46,-28 13,-12 24,-27 31,-43 8,-16 11,-33 11,-52 0,-19 -3,-37 -11,-53 -7,-16 -18,-30 -31,-42 -14,-13 -29,-22 -46,-28 -17,-6 -35,-10 -53,-10 -19,0 -36,4 -54,10 -10,4 -20,9 -30,15 -17,-16 -42,-24 -75,-24l-4 0c-72,3 -107,40 -107,111l0 146 77 0 0 -146c0,-27 10,-41 30,-41l4 0zm-691 30c5,-9 13,-17 23,-22 10,-6 21,-8 32,-8 11,0 22,2 32,8 10,5 18,13 24,22 6,10 9,20 9,32 0,17 -7,31 -19,44 -13,12 -28,18 -46,18 -17,0 -32,-6 -45,-18 -13,-13 -19,-27 -19,-44 0,-12 3,-22 9,-32zm120 157l77 0 0 -125c0,-19 -4,-37 -12,-53 -7,-16 -17,-30 -31,-42 -13,-12 -28,-21 -45,-28 -18,-6 -36,-9 -54,-9 -18,0 -36,3 -54,10 -17,6 -32,15 -45,27 -13,12 -23,26 -31,42 -8,16 -11,34 -11,53 0,25 6,47 19,68 13,19 30,35 52,47 22,11 45,17 70,17 19,0 37,-3 54,-10 2,-1 6,-2 11,-5l0 8zm89 -343l77 0 0 342 -77 1 0 -343zm165 218c0,18 6,32 19,45 12,12 27,18 44,18 16,0 31,-6 44,-18 12,-13 19,-27 19,-45 0,-11 -3,-21 -9,-31 -6,-9 -14,-17 -23,-22 -10,-6 -20,-8 -31,-8 -11,0 -22,2 -31,8 -10,5 -18,13 -24,22 -5,10 -8,20 -8,31zm124 -121c47,20 70,61 70,123l-1 131 0 18c0,31 -11,58 -33,81 -11,10 -25,19 -42,25 -17,6 -33,8 -49,8l-14 0c-36,0 -66,-12 -87,-33 -15,-15 -24,-28 -27,-39l74 -43c1,13 6,23 15,32 9,9 20,13 33,13 10,0 20,-2 28,-8 8,-6 14,-13 18,-22l0 -1 0 -1c1,-1 1,-2 1,-4 1,-1 1,-3 2,-5l0 -1 0 -1 0 -1 0 -1 0 0 0 -26 -2 1 -2 1c-16,7 -33,10 -50,10 -24,0 -46,-6 -66,-18 -21,-11 -37,-27 -49,-48 -13,-20 -19,-43 -19,-68 0,-20 4,-37 11,-54 7,-16 17,-30 29,-43 13,-11 27,-21 43,-27 17,-7 34,-10 51,-10 30,0 52,4 66,11zm287 121c0,17 7,32 20,44 12,12 27,19 45,19 17,0 32,-7 45,-19 13,-12 19,-27 19,-44 0,-12 -3,-22 -9,-32 -6,-9 -13,-17 -23,-22 -10,-6 -21,-9 -32,-9 -11,0 -22,3 -32,9 -10,5 -18,13 -24,22 -6,10 -9,20 -9,32z"/>
    </clipPath>
 </defs>
 <g id="Layer_x0020_1">
  <metadata id="CorelCorpID_0Corel-Layer"/>
  <g id="_686471640">
   <path class="fil0" d="M87 224l-66 0 -21 -78 232 0 20 78 -81 0 0 265 -84 0 0 -265zm892 78c12,0 21,5 25,16 -5,15 -8,30 -8,46 0,25 7,47 20,68 13,20 30,36 52,47 22,12 45,18 70,18 18,0 36,-4 53,-10 17,-7 32,-16 46,-28 13,-12 24,-27 31,-43 8,-16 11,-33 11,-52 0,-19 -3,-37 -11,-53 -7,-16 -18,-30 -31,-42 -14,-13 -29,-22 -46,-28 -17,-6 -35,-10 -53,-10 -19,0 -36,4 -54,10 -10,4 -20,9 -30,15 -17,-16 -42,-24 -75,-24l-4 0c-72,3 -107,40 -107,111l0 146 77 0 0 -146c0,-27 10,-41 30,-41l4 0zm-691 30c5,-9 13,-17 23,-22 10,-6 21,-8 32,-8 11,0 22,2 32,8 10,5 18,13 24,22 6,10 9,20 9,32 0,17 -7,31 -19,44 -13,12 -28,18 -46,18 -17,0 -32,-6 -45,-18 -13,-13 -19,-27 -19,-44 0,-12 3,-22 9,-32zm120 157l77 0 0 -125c0,-19 -4,-37 -12,-53 -7,-16 -17,-30 -31,-42 -13,-12 -28,-21 -45,-28 -18,-6 -36,-9 -54,-9 -18,0 -36,3 -54,10 -17,6 -32,15 -45,27 -13,12 -23,26 -31,42 -8,16 -11,34 -11,53 0,25 6,47 19,68 13,19 30,35 52,47 22,11 45,17 70,17 19,0 37,-3 54,-10 2,-1 6,-2 11,-5l0 8zm89 -343l77 0 0 342 -77 1 0 -343zm165 218c0,18 6,32 19,45 12,12 27,18 44,18 16,0 31,-6 44,-18 12,-13 19,-27 19,-45 0,-11 -3,-21 -9,-31 -6,-9 -14,-17 -23,-22 -10,-6 -20,-8 -31,-8 -11,0 -22,2 -31,8 -10,5 -18,13 -24,22 -5,10 -8,20 -8,31zm124 -121c47,20 70,61 70,123l-1 131 0 18c0,31 -11,58 -33,81 -11,10 -25,19 -42,25 -17,6 -33,8 -49,8l-14 0c-36,0 -66,-12 -87,-33 -15,-15 -24,-28 -27,-39l74 -43c1,13 6,23 15,32 9,9 20,13 33,13 10,0 20,-2 28,-8 8,-6 14,-13 18,-22l0 -1 0 -1c1,-1 1,-2 1,-4 1,-1 1,-3 2,-5l0 -1 0 -1 0 -1 0 -1 0 0 0 -26 -2 1 -2 1c-16,7 -33,10 -50,10 -24,0 -46,-6 -66,-18 -21,-11 -37,-27 -49,-48 -13,-20 -19,-43 -19,-68 0,-20 4,-37 11,-54 7,-16 17,-30 29,-43 13,-11 27,-21 43,-27 17,-7 34,-10 51,-10 30,0 52,4 66,11zm287 121c0,17 7,32 20,44 12,12 27,19 45,19 17,0 32,-7 45,-19 13,-12 19,-27 19,-44 0,-12 -3,-22 -9,-32 -6,-9 -13,-17 -23,-22 -10,-6 -21,-9 -32,-9 -11,0 -22,3 -32,9 -10,5 -18,13 -24,22 -6,10 -9,20 -9,32z"/>
   <g style="clip-path:url(#id0)">
    <g>
     <rect class="fil1" x="586" y="202" width="703" height="161"/>
    </g>
   </g>
   <path class="fil2" d="M87 224l-66 0 -21 -78 232 0 20 78 -81 0 0 265 -84 0 0 -265zm892 78c12,0 21,5 25,16 -5,15 -8,30 -8,46 0,25 7,47 20,68 13,20 30,36 52,47 22,12 45,18 70,18 18,0 36,-4 53,-10 17,-7 32,-16 46,-28 13,-12 24,-27 31,-43 8,-16 11,-33 11,-52 0,-19 -3,-37 -11,-53 -7,-16 -18,-30 -31,-42 -14,-13 -29,-22 -46,-28 -17,-6 -35,-10 -53,-10 -19,0 -36,4 -54,10 -10,4 -20,9 -30,15 -17,-16 -42,-24 -75,-24l-4 0c-72,3 -107,40 -107,111l0 146 77 0 0 -146c0,-27 10,-41 30,-41l4 0zm-691 30c5,-9 13,-17 23,-22 10,-6 21,-8 32,-8 11,0 22,2 32,8 10,5 18,13 24,22 6,10 9,20 9,32 0,17 -7,31 -19,44 -13,12 -28,18 -46,18 -17,0 -32,-6 -45,-18 -13,-13 -19,-27 -19,-44 0,-12 3,-22 9,-32zm120 157l77 0 0 -125c0,-19 -4,-37 -12,-53 -7,-16 -17,-30 -31,-42 -13,-12 -28,-21 -45,-28 -18,-6 -36,-9 -54,-9 -18,0 -36,3 -54,10 -17,6 -32,15 -45,27 -13,12 -23,26 -31,42 -8,16 -11,34 -11,53 0,25 6,47 19,68 13,19 30,35 52,47 22,11 45,17 70,17 19,0 37,-3 54,-10 2,-1 6,-2 11,-5l0 8zm89 -343l77 0 0 342 -77 1 0 -343zm165 218c0,18 6,32 19,45 12,12 27,18 44,18 16,0 31,-6 44,-18 12,-13 19,-27 19,-45 0,-11 -3,-21 -9,-31 -6,-9 -14,-17 -23,-22 -10,-6 -20,-8 -31,-8 -11,0 -22,2 -31,8 -10,5 -18,13 -24,22 -5,10 -8,20 -8,31zm124 -121c47,20 70,61 70,123l-1 131 0 18c0,31 -11,58 -33,81 -11,10 -25,19 -42,25 -17,6 -33,8 -49,8l-14 0c-36,0 -66,-12 -87,-33 -15,-15 -24,-28 -27,-39l74 -43c1,13 6,23 15,32 9,9 20,13 33,13 10,0 20,-2 28,-8 8,-6 14,-13 18,-22l0 -1 0 -1c1,-1 1,-2 1,-4 1,-1 1,-3 2,-5l0 -1 0 -1 0 -1 0 -1 0 0 0 -26 -2 1 -2 1c-16,7 -33,10 -50,10 -24,0 -46,-6 -66,-18 -21,-11 -37,-27 -49,-48 -13,-20 -19,-43 -19,-68 0,-20 4,-37 11,-54 7,-16 17,-30 29,-43 13,-11 27,-21 43,-27 17,-7 34,-10 51,-10 30,0 52,4 66,11zm287 121c0,17 7,32 20,44 12,12 27,19 45,19 17,0 32,-7 45,-19 13,-12 19,-27 19,-44 0,-12 -3,-22 -9,-32 -6,-9 -13,-17 -23,-22 -10,-6 -21,-9 -32,-9 -11,0 -22,3 -32,9 -10,5 -18,13 -24,22 -6,10 -9,20 -9,32z"/>
   <polygon class="fil1" points="813,324 890,324 890,363 813,363 "/>
   <polygon class="fil3" points="0,661 1279,661 1279,796 0,796 "/>
   <path class="fil4" d="M99 744l7 0c3,0 6,0 9,-1 3,0 5,0 6,-1 3,-2 6,-5 7,-8 2,-3 3,-7 3,-12 0,-4 -1,-8 -3,-12 -1,-3 -4,-5 -7,-7 -1,-1 -3,-2 -6,-2 -2,0 -5,0 -9,0l-7 0 0 43zm-9 8l0 -59 17 0c5,0 9,0 12,1 3,0 5,1 7,2 4,2 8,6 10,10 2,5 3,10 3,16 0,6 -1,11 -3,16 -2,4 -5,7 -9,10 -3,1 -5,2 -8,3 -4,1 -8,1 -13,1l-16 0zm67 -27l20 0c0,-4 -1,-7 -3,-9 -2,-2 -4,-3 -7,-3 -3,0 -5,1 -7,3 -2,2 -3,5 -3,9zm26 19c-2,3 -4,5 -7,7 -2,1 -5,2 -9,2 -6,0 -10,-2 -14,-6 -3,-4 -5,-10 -5,-18 0,-7 2,-13 5,-17 4,-4 8,-6 14,-6 6,0 10,2 13,6 4,4 5,10 5,18l0 1 -28 0 0 1c0,4 1,7 3,10 2,3 4,4 7,4 2,0 4,0 6,-1 1,-2 3,-3 4,-5l6 4zm21 8l-14 -45 9 0 6 23c1,2 1,4 2,6 1,2 1,5 2,7l1 -3c1,-5 2,-9 2,-10l7 -23 8 0 -14 45 -9 0zm37 -27l20 0c0,-4 -1,-7 -3,-9 -2,-2 -4,-3 -7,-3 -3,0 -5,1 -7,3 -2,2 -3,5 -3,9zm26 19c-2,3 -4,5 -7,7 -2,1 -5,2 -9,2 -6,0 -10,-2 -14,-6 -3,-4 -5,-10 -5,-18 0,-7 2,-13 5,-17 4,-4 8,-6 14,-6 6,0 10,2 13,6 4,4 5,10 5,18l0 1 -28 0 0 1c0,4 1,7 3,10 2,3 4,4 7,4 2,0 4,0 6,-1 1,-2 3,-3 4,-5l6 4zm12 8l0 -60 8 0 0 60 -8 0zm36 -6c4,0 6,-2 8,-5 2,-3 2,-7 2,-12 0,-5 0,-9 -2,-12 -2,-2 -4,-4 -7,-4 -3,0 -6,1 -8,4 -1,3 -2,7 -2,12 0,5 1,9 2,12 2,3 5,5 7,5zm0 7c-5,0 -10,-2 -13,-6 -3,-5 -5,-10 -5,-18 0,-7 2,-13 5,-17 3,-4 8,-6 13,-6 6,0 11,2 14,6 3,4 5,10 5,17 0,8 -2,13 -5,18 -3,4 -8,6 -14,6zm47 -8c3,0 5,-2 7,-5 2,-2 3,-6 3,-11 0,-5 -1,-8 -3,-11 -2,-3 -4,-4 -7,-4 -3,0 -5,1 -7,4 -2,3 -3,6 -3,11 0,5 1,9 3,11 2,3 4,5 7,5zm-11 -28c1,-3 3,-6 5,-8 2,-2 5,-3 8,-3 5,0 9,2 12,7 2,4 4,9 4,16 0,7 -2,13 -5,17 -3,5 -6,7 -11,7 -3,0 -5,-1 -8,-3 -2,-1 -3,-3 -5,-6 1,1 1,2 1,4 0,2 0,3 0,6l0 12 -8 0 0 -59 8 0c0,2 -1,3 -1,5 0,2 0,4 0,5z"/>
   <path class="fil4" d="M507 752l0 -59 44 0 0 7 -35 0 0 17 33 0 0 8 -33 0 0 19 35 0 0 8 -44 0zm84 0l0 -28c0,-4 0,-6 -1,-8 -2,-1 -3,-2 -6,-2 -3,0 -5,1 -7,4 -2,3 -3,7 -3,12l0 22 -8 0 0 -45 8 0c-1,2 -1,4 -1,6 0,2 0,4 0,6 1,-4 3,-7 5,-9 3,-3 6,-4 9,-4 4,0 7,2 9,4 2,3 4,7 4,12l0 30 -9 0zm37 -8c3,0 6,-2 8,-4 1,-3 2,-7 2,-11 0,-5 -1,-8 -2,-11 -2,-3 -4,-4 -7,-4 -3,0 -6,1 -8,4 -1,3 -2,6 -2,11 0,4 1,8 2,11 2,2 5,4 7,4zm-9 11c1,2 2,3 4,4 1,1 3,1 5,1 3,0 6,-1 7,-3 2,-3 3,-6 3,-11 0,0 0,-1 0,-3 0,0 0,0 0,0 -1,2 -3,4 -5,6 -2,1 -4,2 -7,2 -4,0 -8,-2 -11,-6 -3,-5 -5,-10 -5,-16 0,-7 2,-13 5,-17 3,-4 7,-6 12,-6 2,0 5,1 7,3 2,2 4,4 5,8 0,-2 0,-4 0,-5 -1,-2 -1,-4 -1,-5l8 0 0 38c0,4 0,7 -1,9 0,2 -1,4 -3,6 -1,2 -4,3 -6,4 -3,1 -5,2 -8,2 -4,0 -8,-1 -11,-2 -2,-2 -4,-4 -5,-7l7 -2zm55 -9c3,0 5,-2 7,-4 2,-3 3,-7 3,-12 0,-4 -1,-8 -3,-11 -2,-3 -4,-4 -7,-4 -3,0 -5,1 -7,4 -2,3 -3,7 -3,11 0,5 1,9 3,12 2,2 4,4 7,4zm10 6c0,-2 0,-4 1,-5 0,-2 0,-3 0,-5 -1,4 -3,6 -5,8 -2,2 -5,3 -8,3 -5,0 -9,-2 -12,-6 -3,-4 -4,-10 -4,-17 0,-7 1,-13 4,-17 3,-4 7,-6 12,-6 3,0 5,0 8,2 2,1 3,4 5,7 -1,-2 -1,-3 -1,-5 0,-1 0,-3 0,-4l8 0 0 45 -8 0zm37 -8c3,0 5,-2 7,-4 2,-3 3,-7 3,-11 0,-5 -1,-8 -3,-11 -2,-3 -4,-4 -7,-4 -3,0 -5,1 -7,4 -2,3 -3,6 -3,11 0,4 1,8 3,11 2,2 4,4 7,4zm-9 11c1,2 2,3 3,4 1,1 3,1 5,1 4,0 6,-1 8,-3 2,-3 2,-6 2,-11 0,0 0,-1 0,-3 0,0 0,0 0,0 -1,2 -3,4 -4,6 -2,1 -5,2 -7,2 -5,0 -9,-2 -12,-6 -3,-5 -4,-10 -4,-16 0,-7 1,-13 4,-17 3,-4 7,-6 12,-6 3,0 5,1 8,3 2,2 4,4 5,8 -1,-2 -1,-4 -1,-5 0,-2 0,-4 0,-5l8 0 0 38c0,4 0,7 -1,9 -1,2 -2,4 -3,6 -2,2 -4,3 -7,4 -2,1 -5,2 -8,2 -4,0 -7,-1 -10,-2 -3,-2 -5,-4 -6,-7l8 -2zm45 -30l21 0c-1,-4 -2,-7 -3,-9 -2,-2 -5,-3 -8,-3 -3,0 -5,1 -7,3 -2,2 -3,5 -3,9zm27 19c-2,3 -5,5 -7,7 -3,1 -6,2 -9,2 -6,0 -11,-2 -14,-6 -4,-4 -6,-10 -6,-18 0,-7 2,-13 6,-17 3,-4 7,-6 13,-6 6,0 10,2 14,6 3,4 5,10 5,18l0 1 -29 0 0 1c0,4 1,7 3,10 2,3 5,4 8,4 2,0 4,0 5,-1 2,-2 3,-3 5,-5l6 4z"/>
   <path class="fil4" d="M926 738l8 -3c1,4 2,6 4,8 2,2 5,2 8,2 3,0 5,0 7,-2 2,-2 2,-4 2,-7 0,-3 0,-5 -2,-6 -1,-2 -4,-3 -9,-5 -6,-3 -10,-5 -12,-8 -2,-2 -4,-6 -4,-10 0,-4 2,-8 5,-11 3,-3 7,-5 12,-5 3,0 6,1 9,3 3,1 5,3 7,6l-5 6c-2,-2 -4,-4 -6,-5 -1,-1 -3,-2 -5,-2 -2,0 -4,1 -6,2 -1,1 -2,3 -2,5 0,2 0,4 1,5 1,1 3,3 5,4 2,1 4,2 7,3 2,1 4,1 4,2 4,2 6,4 8,7 1,2 2,5 2,9 0,5 -2,9 -5,12 -3,3 -8,5 -13,5 -5,0 -9,-1 -13,-4 -3,-3 -5,-6 -7,-11zm84 -4c0,6 -2,11 -5,14 -2,3 -7,5 -12,5 -5,0 -9,-2 -12,-5 -3,-3 -5,-8 -5,-14l0 -27 9 0 0 27c0,4 0,7 2,9 1,2 3,3 6,3 3,0 5,-1 6,-3 2,-2 3,-5 3,-9l0 -27 8 0 0 27zm35 -16c-2,-2 -3,-3 -5,-4 -1,-1 -3,-1 -5,-1 -2,0 -4,0 -5,1 -1,1 -2,2 -2,4 0,1 1,2 2,3 0,1 2,2 4,2l1 1c5,1 8,3 10,3 3,2 5,4 6,5 1,2 2,4 2,7 0,4 -2,8 -5,10 -3,3 -7,4 -11,4 -4,0 -7,-1 -10,-2 -3,-1 -5,-4 -8,-6l6 -5c2,2 3,3 5,4 2,2 5,2 7,2 2,0 4,0 6,-2 1,-1 2,-2 2,-4 0,-2 -1,-3 -2,-4 -1,-1 -2,-2 -5,-3 -1,0 -2,0 -4,-1 -3,-1 -6,-2 -7,-3 -2,-1 -4,-3 -5,-4 -1,-2 -1,-4 -1,-6 0,-4 1,-7 4,-9 3,-3 6,-4 10,-4 3,0 6,0 9,2 3,1 5,3 7,6l-6 4zm28 -25l0 14 8 0 0 6 -8 0 0 39 -8 0 0 -39 -9 0 0 -6 9 0 0 -14 8 0zm30 53c2,0 5,-2 7,-4 1,-3 2,-7 2,-12 0,-4 -1,-8 -2,-11 -2,-3 -4,-4 -7,-4 -3,0 -6,1 -7,4 -2,3 -3,7 -3,11 0,5 1,9 3,12 1,2 4,4 7,4zm10 6c0,-2 0,-4 0,-5 0,-2 0,-3 1,-5 -2,4 -3,6 -6,8 -2,2 -4,3 -7,3 -5,0 -9,-2 -12,-6 -3,-4 -5,-10 -5,-17 0,-7 2,-13 5,-17 3,-4 7,-6 12,-6 2,0 5,0 7,2 2,1 4,4 5,7 0,-2 0,-3 -1,-5 0,-1 0,-3 0,-4l8 0 0 45 -7 0zm31 -55c0,2 0,3 -2,4 -1,1 -2,2 -4,2 -2,0 -4,-1 -5,-2 -1,-1 -2,-2 -2,-4 0,-1 1,-3 2,-4 1,-1 3,-1 5,-1 2,0 3,0 4,1 2,1 2,3 2,4zm-10 55l0 -44 8 0 0 44 -8 0zm47 0l0 -28c0,-4 -1,-6 -2,-8 -1,-1 -3,-2 -5,-2 -3,0 -6,1 -7,4 -2,3 -3,7 -3,12l0 22 -9 0 0 -45 8 0c0,2 0,4 0,6 -1,2 -1,4 -1,6 1,-4 3,-7 6,-9 2,-3 5,-4 8,-4 4,0 8,2 10,4 2,3 3,7 3,12l0 30 -8 0z"/>
   <polygon class="fil1" points="439,708 442,708 442,749 439,749 "/>
   <polygon class="fil1" points="851,708 854,708 854,749 851,749 "/>
   <path class="fil1" d="M1260 296c9,0 17,-5 23,-19 21,-61 42,-123 63,-184 -13,-5 -26,-9 -39,-13 39,-27 77,-53 115,-80 14,44 29,89 43,133 -14,-4 -27,-9 -40,-13 -22,63 -43,127 -65,191 -10,29 -25,48 -50,52 -10,0 -20,0 -31,0 -16,0 -32,0 -49,0 -2,-19 -5,-38 -8,-57 13,-3 25,-7 38,-10z"/>
  </g>
 </g>
</svg>
